…
    mastertable <- gdppercapitatable%>%
      left_join(governmentbudgettable, by = "Country")%>%
      left_join(poptable, by = c("Country" = "Country or area"))%>%
      select("Country", "Population\n(1 July 2017)[3]", "US$", "Revenues", "Expenditures", "Surplus (or deficit)", "Year")%>%
      left_join(governmentsystemtable, by = c("Country" = "Name"))%>%
      left_join(opiateusetable, by = c("Country" = "Country or Entity"))%>%
      left_join(cannabisusetable, by = c("Country" = "Country or entity"))%>%
      left_join(cocaineusetable, by = c("Country" = "Country or entity"))%>%
      select("Country", "Year.x", "Population\n(1 July 2017)[3]", "US$", "Revenues", "Expenditures", "Surplus (or deficit)", "Constitutional form", "Head of state", "Annual prevalence (percent).x", "Annual prevalence\n(percent)","Annual prevalence (percent).y")%>%
      rename("Population" = "Population\n(1 July 2017)[3]","Head_of_State" = "Head of state", "Constitutional_Form" = "Constitutional form", "Revenues" = "Revenues", "GDP_per_Capita" = "US$", "Expenditures" = "Expenditures", "Surplus_or_Deficit" = "Surplus (or deficit)","Year" = "Year.x", "Opiate_Prevalence" = "Annual prevalence (percent).x", "Cannabis_Prevalence" = "Annual prevalence\n(percent)", "Cocaine_Prevalence" = "Annual prevalence (percent).y")
    mastertable

    ## # A tibble: 219 x 12
    ##    Country      Year       Population GDP_per_Capita Revenues Expenditures
    ##    <chr>        <chr>      <chr>      <chr>          <chr>    <chr>       
    ##  1 Monaco       2011 est.… 38,695     168,004        915      973         
    ##  2 Liechtenste… 2012 est.… 37,922     164,437        995      890         
    ##  3 Luxembourg   2016 est.… 583,455    101,835        25,850   25,520      
    ##  4 Bermuda      2016 est.… 61,349     99,363         960      1,154       
    ##  5 Switzerland  2016 est.… 8,476,005  79,609         215,900  213,400     
    ##  6 Macau        2016 est.… 622,567    73,187         12,120   7,004       
    ##  7 Norway       2016 est.… <NA>       70,617         199,800  188,800     
    ##  8 Ireland      2016 est.… 4,761,657  64,497         78,470   80,860      
    ##  9 Cayman Isla… 2016 est.… 61,559     63,261         860      742         
    ## 10 Iceland      2016 est.… 335,025    60,966         10,350   7,911       
    ## # ... with 209 more rows, and 6 more variables: Surplus_or_Deficit <chr>,
    ## #   Constitutional_Form <chr>, Head_of_State <chr>,
    ## #   Opiate_Prevalence <dbl>, Cannabis_Prevalence <dbl>,
    ## #   Cocaine_Prevalence <dbl>
…
